identificador_direccion/simulation/qsim/identificador_direccion.msim.vcd
$comment
	File created using the following command:
		vcd file identificador_direccion.msim.vcd -direction
$end
$date
	Sat Mar 22 11:31:49 2025
$end
$version
	ModelSim Version 10.1d
$end
$timescale
	1ps
$end
$scope module identificador_direccion_vlg_vec_tst $end
$var reg 1 ! clk_1Hz $end
$var reg 1 " motor_bajar $end
$var reg 1 # motor_subir $end
$var reg 1 $ reset $end
$var reg 4 % solicitudes_bajar [3:0] $end
$var reg 5 & solicitudes_cabina [4:0] $end
$var reg 4 ' solicitudes_subir [3:0] $end
$var wire 1 ( piso_destino [2] $end
$var wire 1 ) piso_destino [1] $end
$var wire 1 * piso_destino [0] $end
$var wire 1 + sampler $end
$scope module i1 $end
$var wire 1 , gnd $end
$var wire 1 - vcc $end
$var wire 1 . unknown $end
$var tri1 1 / devclrn $end
$var tri1 1 0 devpor $end
$var tri1 1 1 devoe $end
$var wire 1 2 piso_destino[0]~output_o $end
$var wire 1 3 piso_destino[1]~output_o $end
$var wire 1 4 piso_destino[2]~output_o $end
$var wire 1 5 clk_1Hz~input_o $end
$var wire 1 6 clk_1Hz~inputclkctrl_outclk $end
$var wire 1 7 solicitudes_cabina[1]~input_o $end
$var wire 1 8 solicitudes_subir[1]~input_o $end
$var wire 1 9 solicitudes_bajar[0]~input_o $end
$var wire 1 : solicitudes_combinadas[1]~1_combout $end
$var wire 1 ; solicitudes_subir[2]~input_o $end
$var wire 1 < solicitudes_cabina[2]~input_o $end
$var wire 1 = solicitudes_bajar[1]~input_o $end
$var wire 1 > solicitudes_combinadas[2]~0_combout $end
$var wire 1 ? solicitudes_bajar[3]~input_o $end
$var wire 1 @ solicitudes_cabina[4]~input_o $end
$var wire 1 A process_0~2_combout $end
$var wire 1 B solicitudes_subir[3]~input_o $end
$var wire 1 C solicitudes_cabina[3]~input_o $end
$var wire 1 D solicitudes_bajar[2]~input_o $end
$var wire 1 E process_0~0_combout $end
$var wire 1 F process_0~3_combout $end
$var wire 1 G solicitudes_cabina[0]~input_o $end
$var wire 1 H solicitudes_subir[0]~input_o $end
$var wire 1 I process_0~5_combout $end
$var wire 1 J motor_bajar~input_o $end
$var wire 1 K motor_subir~input_o $end
$var wire 1 L Mux2~0_combout $end
$var wire 1 M destino_int[0]~5_combout $end
$var wire 1 N destino_int[1]~4_combout $end
$var wire 1 O process_0~1_combout $end
$var wire 1 P process_0~4_combout $end
$var wire 1 Q destino_int[1]~9_combout $end
$var wire 1 R destino_int[0]~6_combout $end
$var wire 1 S destino_int[0]~10_combout $end
$var wire 1 T RegistroDestino|reg[0]~0_combout $end
$var wire 1 U reset~input_o $end
$var wire 1 V reset~inputclkctrl_outclk $end
$var wire 1 W destino_int[1]~7_combout $end
$var wire 1 X destino_int[1]~8_combout $end
$var wire 1 Y Mux0~0_combout $end
$var wire 1 Z Mux0~1_combout $end
$var wire 1 [ RegistroDestino|reg[2]~feeder_combout $end
$var wire 1 \ RegistroDestino|reg [2] $end
$var wire 1 ] RegistroDestino|reg [1] $end
$var wire 1 ^ RegistroDestino|reg [0] $end
$var wire 1 _ destino_int [2] $end
$var wire 1 ` destino_int [1] $end
$var wire 1 a destino_int [0] $end
$upscope $end
$upscope $end
$enddefinitions $end
#0
$dumpvars
0!
0"
0#
0$
b0 %
b100 &
b0 '
0*
0)
0(
x+
0,
1-
x.
1/
10
11
02
03
04
05
06
07
08
09
0:
0;
1<
0=
0>
0?
0@
1A
0B
0C
0D
1E
1F
0G
0H
0I
0J
0K
0L
1M
1N
1O
0P
0Q
0R
1S
1T
0U
0V
1W
1X
0Y
0Z
0[
0^
0]
0\
0a
0`
0_
$end
#5000
1!
15
16
0+
1`
1^
12
1*
#10000
0!
05
06
1+
#15000
1!
15
16
0+
1]
13
1)
#20000
0!
05
06
1+
#25000
1!
15
16
0+
#30000
0!
05
06
1+
#35000
1!
15
16
0+
#40000
0!
05
06
1+
#45000
1!
15
16
0+
#50000
0!
05
06
1+
#55000
1!
15
16
0+
#60000
0!
05
06
1+
#65000
1!
15
16
0+
#70000
0!
05
06
1+
#75000
1!
15
16
0+
#80000
0!
05
06
1+
#85000
1!
15
16
0+
#90000
0!
05
06
1+
#95000
1!
15
16
0+
#100000
0!
05
06
1+
#105000
1!
15
16
0+
#110000
0!
05
06
1+
#115000
1!
15
16
0+
#120000
0!
05
06
1+
#125000
1!
15
16
0+
#130000
0!
05
06
1+
#135000
1!
15
16
0+
#140000
0!
05
06
1+
#145000
1!
15
16
0+
#150000
0!
05
06
1+
#155000
1!
15
16
0+
#160000
0!
05
06
1+
#165000
1!
15
16
0+
#170000
0!
05
06
1+
#175000
1!
15
16
0+
#180000
0!
05
06
1+
#185000
1!
15
16
0+
#190000
0!
05
06
1+
#195000
1!
15
16
0+
#200000
0!
05
06
1+
#205000
1!
15
16
0+
#210000
0!
05
06
1+
#215000
1!
15
16
0+
#220000
0!
05
06
1+
#225000
1!
15
16
0+
#230000
0!
05
06
1+
#235000
1!
15
16
0+
#240000
0!
05
06
1+
#245000
1!
15
16
0+
#250000
0!
05
06
1+
#255000
1!
15
16
0+
#260000
0!
05
06
1+
#265000
1!
15
16
0+
#270000
0!
05
06
1+
#275000
1!
15
16
0+
#280000
0!
05
06
1+
#285000
1!
15
16
0+
#290000
0!
05
06
1+
#295000
1!
15
16
0+
#300000
0!
05
06
1+
#305000
1!
15
16
0+
#310000
0!
05
06
1+
#315000
1!
15
16
0+
#320000
0!
05
06
1+
#325000
1!
15
16
0+
#330000
0!
05
06
1+
#335000
1!
15
16
0+
#340000
0!
05
06
1+
#345000
1!
15
16
0+
#350000
0!
05
06
1+
#355000
1!
15
16
0+
#360000
0!
05
06
1+
#365000
1!
15
16
0+
#370000
0!
05
06
1+
#375000
1!
15
16
0+
#380000
0!
05
06
1+
#385000
1!
15
16
0+
#390000
0!
05
06
1+
#395000
1!
15
16
0+
#400000
0!
05
06
1+
#405000
1!
15
16
0+
#410000
0!
05
06
1+
#415000
1!
15
16
0+
#420000
0!
05
06
1+
#425000
1!
15
16
0+
#430000
0!
05
06
1+
#435000
1!
15
16
0+
#440000
0!
05
06
1+
#445000
1!
15
16
0+
#450000
0!
05
06
1+
#455000
1!
15
16
0+
#460000
0!
05
06
1+
#465000
1!
15
16
0+
#470000
0!
05
06
1+
#475000
1!
15
16
0+
#480000
0!
05
06
1+
#485000
1!
15
16
0+
#490000
0!
05
06
1+
#495000
1!
15
16
0+
#500000
0!
05
06
1+
#505000
1!
15
16
0+
#510000
0!
05
06
1+
#515000
1!
15
16
0+
#520000
0!
05
06
1+
#525000
1!
15
16
0+
#530000
0!
05
06
1+
#535000
1!
15
16
0+
#540000
0!
05
06
1+
#545000
1!
15
16
0+
#550000
0!
05
06
1+
#555000
1!
15
16
0+
#560000
0!
05
06
1+
#565000
1!
15
16
0+
#570000
0!
05
06
1+
#575000
1!
15
16
0+
#580000
0!
05
06
1+
#585000
1!
15
16
0+
#590000
0!
05
06
1+
#595000
1!
15
16
0+
#600000
0!
05
06
1+
#605000
1!
15
16
0+
#610000
0!
05
06
1+
#615000
1!
15
16
0+
#620000
0!
05
06
1+
#625000
1!
15
16
0+
#630000
0!
05
06
1+
#635000
1!
15
16
0+
#640000
0!
05
06
1+
#645000
1!
15
16
0+
#650000
0!
05
06
1+
#655000
1!
15
16
0+
#660000
0!
05
06
1+
#665000
1!
15
16
0+
#670000
0!
05
06
1+
#675000
1!
15
16
0+
#680000
0!
05
06
1+
#685000
1!
15
16
0+
#690000
0!
05
06
1+
#695000
1!
15
16
0+
#700000
0!
05
06
1+
#705000
1!
15
16
0+
#710000
0!
05
06
1+
#715000
1!
15
16
0+
#720000
0!
05
06
1+
#725000
1!
15
16
0+
#730000
0!
05
06
1+
#735000
1!
15
16
0+
#740000
0!
05
06
1+
#745000
1!
15
16
0+
#750000
0!
05
06
1+
#755000
1!
15
16
0+
#760000
0!
05
06
1+
#765000
1!
15
16
0+
#770000
0!
05
06
1+
#775000
1!
15
16
0+
#780000
0!
05
06
1+
#785000
1!
15
16
0+
#790000
0!
05
06
1+
#795000
1!
15
16
0+
#800000
0!
05
06
1+
#805000
1!
15
16
0+
#810000
0!
05
06
1+
#815000
1!
15
16
0+
#820000
0!
05
06
1+
#825000
1!
15
16
0+
#830000
0!
05
06
1+
#835000
1!
15
16
0+
#840000
0!
05
06
1+
#845000
1!
15
16
0+
#850000
0!
05
06
1+
#855000
1!
15
16
0+
#860000
0!
05
06
1+
#865000
1!
15
16
0+
#870000
0!
05
06
1+
#875000
1!
15
16
0+
#880000
0!
05
06
1+
#885000
1!
15
16
0+
#890000
0!
05
06
1+
#895000
1!
15
16
0+
#900000
0!
05
06
1+
#905000
1!
15
16
0+
#910000
0!
05
06
1+
#915000
1!
15
16
0+
#920000
0!
05
06
1+
#925000
1!
15
16
0+
#930000
0!
05
06
1+
#935000
1!
15
16
0+
#940000
0!
05
06
1+
#945000
1!
15
16
0+
#950000
0!
05
06
1+
#955000
1!
15
16
0+
#960000
0!
05
06
1+
#965000
1!
15
16
0+
#970000
0!
05
06
1+
#975000
1!
15
16
0+
#980000
0!
05
06
1+
#985000
1!
15
16
0+
#990000
0!
05
06
1+
#995000
1!
15
16
0+
