detectar_piso_actual/simulation/qsim/detectar_piso_actual.msim.vcd
$comment
	File created using the following command:
		vcd file detectar_piso_actual.msim.vcd -direction
$end
$date
	Tue Mar 25 14:42:58 2025
$end
$version
	ModelSim Version 10.1d
$end
$timescale
	1ps
$end
$scope module detectar_piso_actual_vlg_vec_tst $end
$var reg 1 ! clk_1Hz $end
$var reg 1 " motor_bajar $end
$var reg 1 # motor_subir $end
$var reg 1 $ reset $end
$var wire 1 % piso_actual [2] $end
$var wire 1 & piso_actual [1] $end
$var wire 1 ' piso_actual [0] $end
$var wire 1 ( sampler $end
$scope module i1 $end
$var wire 1 ) gnd $end
$var wire 1 * vcc $end
$var wire 1 + unknown $end
$var tri1 1 , devclrn $end
$var tri1 1 - devpor $end
$var tri1 1 . devoe $end
$var wire 1 / piso_actual[0]~output_o $end
$var wire 1 0 piso_actual[1]~output_o $end
$var wire 1 1 piso_actual[2]~output_o $end
$var wire 1 2 clk_1Hz~input_o $end
$var wire 1 3 clk_1Hz~inputclkctrl_outclk $end
$var wire 1 4 motor_subir~input_o $end
$var wire 1 5 motor_bajar~input_o $end
$var wire 1 6 TimerInst|CounterInst|cnt_value[0]~2_combout $end
$var wire 1 7 reset~input_o $end
$var wire 1 8 reset~inputclkctrl_outclk $end
$var wire 1 9 movimiento_activo~1_combout $end
$var wire 1 : timer_start~2_combout $end
$var wire 1 ; timer_start~q $end
$var wire 1 < TimerInst|cnt_enable~0_combout $end
$var wire 1 = TimerInst|cnt_enable~q $end
$var wire 1 > TimerInst|CounterInst|cnt_value~0_combout $end
$var wire 1 ? TimerInst|CounterInst|cnt_value~1_combout $end
$var wire 1 @ TimerInst|Equal0~0_combout $end
$var wire 1 A TimerInst|done~q $end
$var wire 1 B movimiento_activo~0_combout $end
$var wire 1 C movimiento_activo~q $end
$var wire 1 D piso_actual_int[1]~0_combout $end
$var wire 1 E piso_actual_int[2]~4_combout $end
$var wire 1 F piso_actual_int[2]~5_combout $end
$var wire 1 G piso_actual_int[2]~6_combout $end
$var wire 1 H process_0~1_combout $end
$var wire 1 I piso_actual_int[1]~2_combout $end
$var wire 1 J piso_actual_int[1]~3_combout $end
$var wire 1 K process_0~0_combout $end
$var wire 1 L piso_actual_int[0]~1_combout $end
$var wire 1 M RegPisoActual|reg[0]~0_combout $end
$var wire 1 N RegPisoActual|reg [2] $end
$var wire 1 O RegPisoActual|reg [1] $end
$var wire 1 P RegPisoActual|reg [0] $end
$var wire 1 Q piso_actual_int [2] $end
$var wire 1 R piso_actual_int [1] $end
$var wire 1 S piso_actual_int [0] $end
$var wire 1 T TimerInst|CounterInst|cnt_value [2] $end
$var wire 1 U TimerInst|CounterInst|cnt_value [1] $end
$var wire 1 V TimerInst|CounterInst|cnt_value [0] $end
$upscope $end
$upscope $end
$enddefinitions $end
#0
$dumpvars
0!
0"
1#
0$
0'
0&
0%
x(
0)
1*
x+
1,
1-
1.
0/
00
01
02
03
14
05
16
07
08
19
1:
0;
0<
0=
0>
0?
0@
0A
1B
0C
0D
1E
0F
0G
1H
0I
0J
1K
0L
1M
0P
0O
0N
0S
0R
0Q
0V
0U
0T
$end
#5000
1!
12
13
0(
1C
1;
1P
09
1<
1/
1'
#10000
0!
02
03
1(
#15000
1!
12
13
0(
1=
#20000
0!
02
03
1(
#25000
1!
12
13
0(
1V
1?
06
#30000
0!
02
03
1(
#35000
1!
12
13
0(
1U
0V
16
#40000
0!
02
03
1(
#45000
1!
12
13
0(
1V
0?
1>
06
#50000
0!
02
03
1(
#55000
1!
12
13
0(
0U
1T
0V
1@
16
0<
#60000
0!
02
03
1(
#65000
1!
12
13
0(
1A
1V
0=
1I
1F
1D
0B
0:
0@
0>
06
1<
1J
1L
#70000
0!
02
03
1(
#75000
1!
12
13
0(
1S
1R
0C
1=
0;
0M
0L
0E
1G
0I
0F
0D
1B
19
0G
1L
1:
#80000
0!
02
03
1(
#85000
1!
12
13
0(
1C
0A
0T
0V
1;
1O
0P
09
16
10
0/
1&
0'
#90000
0!
02
03
1(
#95000
1!
12
13
0(
1V
1?
06
#100000
0!
02
03
1(
#105000
1!
12
13
0(
1U
0V
16
#110000
0!
02
03
1(
#115000
1!
12
13
0(
1V
0?
1>
06
#120000
0!
02
03
1(
#125000
1!
12
13
0(
0U
1T
0V
1@
16
0<
#130000
0!
02
03
1(
#135000
1!
12
13
0(
1A
1V
0=
1I
1D
0B
0:
0@
0>
06
1<
0L
#140000
0!
02
03
1(
#145000
1!
12
13
0(
0S
0C
1=
0;
1M
1L
0J
1E
0I
0D
1B
19
1J
0L
1:
#150000
0!
02
03
1(
#155000
1!
12
13
0(
1C
0A
0T
0V
1;
1P
09
16
1/
1'
#160000
0!
02
03
1(
#165000
1!
12
13
0(
1V
1?
06
#170000
0!
02
03
1(
#175000
1!
12
13
0(
1U
0V
16
#180000
0!
02
03
1(
#185000
1!
12
13
0(
1V
0?
1>
06
#190000
0!
02
03
1(
#195000
1!
12
13
0(
0U
1T
0V
1@
16
0<
#200000
0!
02
03
1(
#205000
1!
12
13
0(
1A
1V
0=
1I
1F
1D
0B
0:
0@
0>
06
1<
0J
1G
1L
#210000
0!
02
03
1(
#215000
1!
12
13
0(
1S
0R
1Q
0C
1=
0;
0M
0L
0E
0I
0F
0D
1B
19
1L
1:
#220000
0!
02
03
1(
#225000
1!
12
13
0(
1C
0A
0T
0V
1;
1N
0O
0P
09
16
11
00
0/
1%
0&
0'
#230000
0!
02
03
1(
#235000
1!
12
13
0(
1V
1?
06
#240000
0!
02
03
1(
#245000
1!
12
13
0(
1U
0V
16
#250000
0!
02
03
1(
#255000
1!
12
13
0(
1V
0?
1>
06
#260000
0!
02
03
1(
#265000
1!
12
13
0(
0U
1T
0V
1@
16
0<
#270000
0!
02
03
1(
#275000
1!
12
13
0(
1A
1V
0=
1I
1D
0B
0:
0@
0>
06
1<
0L
#280000
0!
02
03
1(
#285000
1!
12
13
0(
0S
0C
1=
0;
1M
1L
0K
1J
0I
0D
1B
19
0L
0J
1:
#290000
0!
02
03
1(
#295000
1!
12
13
0(
1C
0A
0T
0V
1;
1P
09
16
1/
1'
#300000
0!
02
03
1(
#305000
1!
12
13
0(
1V
1?
06
#310000
0!
02
03
1(
#315000
1!
12
13
0(
1U
0V
16
#320000
0!
02
03
1(
#325000
1!
12
13
0(
1V
0?
1>
06
#330000
0!
02
03
1(
#335000
1!
12
13
0(
0U
1T
0V
1@
16
0<
#340000
0!
02
03
1(
#345000
1!
12
13
0(
1A
1V
0=
1D
0B
0:
0@
0>
06
1<
#350000
0!
02
03
1(
#355000
1!
12
13
0(
0C
1=
0;
0D
1B
19
1:
#360000
0!
02
03
1(
#365000
1!
12
13
0(
1C
0A
0T
0V
1;
09
16
#370000
0!
02
03
1(
#375000
1!
12
13
0(
1V
1?
06
#380000
0#
0!
04
02
03
1(
#385000
1!
12
13
0(
1U
0V
16
#390000
0!
02
03
1(
#395000
1!
12
13
0(
1V
0?
1>
06
#400000
0!
02
03
1(
#405000
1!
12
13
0(
0U
1T
0V
1@
16
0<
#410000
1"
0!
15
02
03
1(
0H
#415000
1!
12
13
0(
1A
1V
0=
1I
1D
0B
0:
0@
0>
06
1<
1L
#420000
0!
02
03
1(
#425000
1!
12
13
0(
1S
0C
1=
0;
0M
0L
1J
1E
0I
0D
1B
19
0J
1L
1:
#430000
0!
02
03
1(
#435000
1!
12
13
0(
1C
0A
0T
0V
1;
0P
09
16
0/
0'
#440000
0!
02
03
1(
#445000
1!
12
13
0(
1V
1?
06
#450000
0!
02
03
1(
#455000
1!
12
13
0(
1U
0V
16
#460000
0!
02
03
1(
#465000
1!
12
13
0(
1V
0?
1>
06
#470000
0!
02
03
1(
#475000
1!
12
13
0(
0U
1T
0V
1@
16
0<
#480000
0!
02
03
1(
#485000
1!
12
13
0(
1A
1V
0=
1I
1F
1D
0B
0:
0@
0>
06
1<
1J
0G
0L
#490000
0!
02
03
1(
#495000
1!
12
13
0(
0S
1R
0Q
0C
1=
0;
1M
1L
0E
1G
0I
0F
0D
1B
19
0G
0L
1:
#500000
0!
02
03
1(
#505000
1!
12
13
0(
1C
0A
0T
0V
1;
0N
1O
1P
09
16
01
10
1/
0%
1&
1'
#510000
0!
02
03
1(
#515000
1!
12
13
0(
1V
1?
06
#520000
0!
02
03
1(
#525000
1!
12
13
0(
1U
0V
16
#530000
0!
02
03
1(
#535000
1!
12
13
0(
1V
0?
1>
06
#540000
0!
02
03
1(
#545000
1!
12
13
0(
0U
1T
0V
1@
16
0<
#550000
0!
02
03
1(
#555000
1!
12
13
0(
1A
1V
0=
1I
1D
0B
0:
0@
0>
06
1<
1L
#560000
0!
02
03
1(
#565000
1!
12
13
0(
1S
0C
1=
0;
0M
0L
0J
0I
0D
1B
19
1J
1L
1:
#570000
0!
02
03
1(
#575000
1!
12
13
0(
1C
0A
0T
0V
1;
0P
09
16
0/
0'
#580000
0!
02
03
1(
#585000
1!
12
13
0(
1V
1?
06
#590000
0!
02
03
1(
#595000
1!
12
13
0(
1U
0V
16
#600000
0!
02
03
1(
#605000
1!
12
13
0(
1V
0?
1>
06
#610000
0!
02
03
1(
#615000
1!
12
13
0(
0U
1T
0V
1@
16
0<
#620000
0!
02
03
1(
#625000
1!
12
13
0(
1A
1V
0=
1I
1D
0B
0:
0@
0>
06
1<
0J
0L
#630000
0!
02
03
1(
#635000
1!
12
13
0(
0S
0R
0C
1=
0;
1M
1L
1H
0I
0D
1B
19
0L
1:
#640000
0!
02
03
1(
#645000
1!
12
13
0(
1C
0A
0T
0V
1;
0O
1P
09
16
00
1/
0&
1'
#650000
0!
02
03
1(
#655000
1!
12
13
0(
1V
1?
06
#660000
0!
02
03
1(
#665000
1!
12
13
0(
1U
0V
16
#670000
0!
02
03
1(
#675000
1!
12
13
0(
1V
0?
1>
06
#680000
0!
02
03
1(
#685000
1!
12
13
0(
0U
1T
0V
1@
16
0<
#690000
0!
02
03
1(
#695000
1!
12
13
0(
1A
1V
0=
1D
0B
0:
0@
0>
06
1<
#700000
0!
02
03
1(
#705000
1!
12
13
0(
0C
1=
0;
0D
1B
19
1:
#710000
0!
02
03
1(
#715000
1!
12
13
0(
1C
0A
0T
0V
1;
09
16
#720000
0!
02
03
1(
#725000
1!
12
13
0(
1V
1?
06
#730000
0!
02
03
1(
#735000
1!
12
13
0(
1U
0V
16
#740000
0!
02
03
1(
#745000
1!
12
13
0(
1V
0?
1>
06
#750000
0!
02
03
1(
#755000
1!
12
13
0(
0U
1T
0V
1@
16
0<
#760000
0!
02
03
1(
#765000
1!
12
13
0(
1A
1V
0=
1D
0B
0:
0@
0>
06
1<
#770000
0!
02
03
1(
#775000
1!
12
13
0(
0C
1=
0;
0D
1B
19
1:
#780000
0!
02
03
1(
#785000
1!
12
13
0(
1C
0A
0T
0V
1;
09
16
#790000
0!
02
03
1(
#795000
1!
12
13
0(
1V
1?
06
#800000
0!
02
03
1(
#805000
1!
12
13
0(
1U
0V
16
#810000
0"
0!
05
02
03
1(
#815000
1!
12
13
0(
1V
0?
1>
06
#820000
0!
02
03
1(
#825000
1!
12
13
0(
0U
1T
0V
1@
16
0<
#830000
0!
02
03
1(
#835000
1!
12
13
0(
1A
1V
0=
1D
0B
0:
0@
0>
06
1<
#840000
0!
02
03
1(
#845000
1!
12
13
0(
0C
1=
0;
0D
#850000
0!
02
03
1(
#855000
1!
12
13
0(
0A
0T
0V
16
#860000
0!
02
03
1(
#865000
1!
12
13
0(
1V
1?
06
#870000
0!
02
03
1(
#875000
1!
12
13
0(
1U
0V
16
#880000
0!
02
03
1(
#885000
1!
12
13
0(
1V
0?
1>
06
#890000
0!
02
03
1(
#895000
1!
12
13
0(
0U
1T
0V
1@
16
0<
#900000
0!
02
03
1(
#905000
1!
12
13
0(
1A
1V
0=
0@
0>
06
#910000
0!
02
03
1(
#915000
1!
12
13
0(
#920000
0!
02
03
1(
#925000
1!
12
13
0(
#930000
0!
02
03
1(
#935000
1!
12
13
0(
#940000
0!
02
03
1(
#945000
1!
12
13
0(
#950000
0!
02
03
1(
#955000
1!
12
13
0(
#960000
0!
02
03
1(
#965000
1!
12
13
0(
#970000
0!
02
03
1(
#975000
1!
12
13
0(
#980000
0!
02
03
1(
#985000
1!
12
13
0(
#990000
0!
02
03
1(
#995000
1!
12
13
0(
