ControlAscensor/simulation/qsim/ControlAscensor.msim.vcd
$comment
	File created using the following command:
		vcd file ControlAscensor.msim.vcd -direction
$end
$date
	Tue Mar 25 18:56:29 2025
$end
$version
	ModelSim Version 10.1d
$end
$timescale
	1ps
$end
$scope module ControlAscensor_vlg_vec_tst $end
$var reg 1 ! clk_1Hz $end
$var reg 1 " fallo_energia $end
$var reg 1 # notificacion $end
$var reg 3 $ piso_actual [2:0] $end
$var reg 3 % piso_destino [2:0] $end
$var reg 1 & puerta $end
$var reg 1 ' reset $end
$var reg 1 ( sobrecarga $end
$var wire 1 ) clear_request [4] $end
$var wire 1 * clear_request [3] $end
$var wire 1 + clear_request [2] $end
$var wire 1 , clear_request [1] $end
$var wire 1 - clear_request [0] $end
$var wire 1 . clear_request_bajar [3] $end
$var wire 1 / clear_request_bajar [2] $end
$var wire 1 0 clear_request_bajar [1] $end
$var wire 1 1 clear_request_bajar [0] $end
$var wire 1 2 clear_request_subir [3] $end
$var wire 1 3 clear_request_subir [2] $end
$var wire 1 4 clear_request_subir [1] $end
$var wire 1 5 clear_request_subir [0] $end
$var wire 1 6 llegada_piso $end
$var wire 1 7 motor_bajar $end
$var wire 1 8 motor_subir $end
$var wire 1 9 sampler $end
$scope module i1 $end
$var wire 1 : gnd $end
$var wire 1 ; vcc $end
$var wire 1 < unknown $end
$var tri1 1 = devclrn $end
$var tri1 1 > devpor $end
$var tri1 1 ? devoe $end
$var wire 1 @ motor_subir~output_o $end
$var wire 1 A motor_bajar~output_o $end
$var wire 1 B llegada_piso~output_o $end
$var wire 1 C clear_request[0]~output_o $end
$var wire 1 D clear_request[1]~output_o $end
$var wire 1 E clear_request[2]~output_o $end
$var wire 1 F clear_request[3]~output_o $end
$var wire 1 G clear_request[4]~output_o $end
$var wire 1 H clear_request_subir[0]~output_o $end
$var wire 1 I clear_request_subir[1]~output_o $end
$var wire 1 J clear_request_subir[2]~output_o $end
$var wire 1 K clear_request_subir[3]~output_o $end
$var wire 1 L clear_request_bajar[0]~output_o $end
$var wire 1 M clear_request_bajar[1]~output_o $end
$var wire 1 N clear_request_bajar[2]~output_o $end
$var wire 1 O clear_request_bajar[3]~output_o $end
$var wire 1 P clk_1Hz~input_o $end
$var wire 1 Q clk_1Hz~inputclkctrl_outclk $end
$var wire 1 R fallo_energia~input_o $end
$var wire 1 S notificacion~input_o $end
$var wire 1 T sobrecarga~input_o $end
$var wire 1 U llegada_piso~1_combout $end
$var wire 1 V piso_destino[2]~input_o $end
$var wire 1 W piso_actual[2]~input_o $end
$var wire 1 X piso_destino[1]~input_o $end
$var wire 1 Y piso_actual[1]~input_o $end
$var wire 1 Z llegada_piso~0_combout $end
$var wire 1 [ piso_actual[0]~input_o $end
$var wire 1 \ Comparator|LessThan1~0_combout $end
$var wire 1 ] piso_destino[0]~input_o $end
$var wire 1 ^ Comparator|LessThan1~1_combout $end
$var wire 1 _ llegada_piso~2_combout $end
$var wire 1 ` puerta~input_o $end
$var wire 1 a Timer|cnt_enable~0_combout $end
$var wire 1 b reset~input_o $end
$var wire 1 c comb~0_combout $end
$var wire 1 d Timer|cnt_enable~q $end
$var wire 1 e Timer|CounterInst|cnt_value[0]~3_combout $end
$var wire 1 f Timer|CounterInst|cnt_value[1]~1_combout $end
$var wire 1 g Timer|CounterInst|cnt_value~2_combout $end
$var wire 1 h Timer|CounterInst|cnt_value~0_combout $end
$var wire 1 i Timer|Equal0~0_combout $end
$var wire 1 j Timer|done~q $end
$var wire 1 k clear_pulse~0_combout $end
$var wire 1 l reset~inputclkctrl_outclk $end
$var wire 1 m clear_pulse~q $end
$var wire 1 n motor_in[1]~0_combout $end
$var wire 1 o motor_in[0]~1_combout $end
$var wire 1 p motor_in[0]~2_combout $end
$var wire 1 q motor_in[0]~3_combout $end
$var wire 1 r Decoder0~0_combout $end
$var wire 1 s Decoder0~1_combout $end
$var wire 1 t clear_request[0]~reg0feeder_combout $end
$var wire 1 u clear_request[0]~reg0_q $end
$var wire 1 v clear_request_bajar~0_combout $end
$var wire 1 w Decoder0~2_combout $end
$var wire 1 x clear_request[1]~reg0feeder_combout $end
$var wire 1 y clear_request[1]~reg0_q $end
$var wire 1 z Decoder0~3_combout $end
$var wire 1 { clear_request[2]~reg0feeder_combout $end
$var wire 1 | clear_request[2]~reg0_q $end
$var wire 1 } Decoder0~4_combout $end
$var wire 1 ~ clear_request[3]~reg0feeder_combout $end
$var wire 1 !! clear_request[3]~reg0_q $end
$var wire 1 "! Decoder0~5_combout $end
$var wire 1 #! clear_request[4]~reg0_q $end
$var wire 1 $! clear_request_subir[0]~reg0_q $end
$var wire 1 %! clear_request_subir[1]~reg0feeder_combout $end
$var wire 1 &! clear_request_subir[1]~reg0_q $end
$var wire 1 '! clear_request_subir[2]~reg0_q $end
$var wire 1 (! clear_request_subir[3]~reg0feeder_combout $end
$var wire 1 )! clear_request_subir[3]~reg0_q $end
$var wire 1 *! clear_request_bajar[0]~reg0_q $end
$var wire 1 +! clear_request_bajar~1_combout $end
$var wire 1 ,! clear_request_bajar[1]~reg0_q $end
$var wire 1 -! clear_request_bajar[2]~reg0_q $end
$var wire 1 .! clear_request_bajar~2_combout $end
$var wire 1 /! clear_request_bajar[3]~reg0_q $end
$var wire 1 0! Timer|CounterInst|cnt_value [3] $end
$var wire 1 1! Timer|CounterInst|cnt_value [2] $end
$var wire 1 2! Timer|CounterInst|cnt_value [1] $end
$var wire 1 3! Timer|CounterInst|cnt_value [0] $end
$var wire 1 4! MotorRegister|reg [1] $end
$var wire 1 5! MotorRegister|reg [0] $end
$upscope $end
$upscope $end
$enddefinitions $end
#0
$dumpvars
0!
0"
0#
b1 $
b11 %
0&
0'
0(
0-
0,
0+
0*
0)
01
00
0/
0.
05
04
03
02
06
07
08
x9
0:
1;
x<
1=
1>
1?
0@
0A
0B
0C
0D
0E
0F
0G
0H
0I
0J
0K
0L
0M
0N
0O
0P
0Q
0R
0S
0T
1U
0V
0W
1X
0Y
0Z
1[
1\
1]
1^
0_
0`
0a
0b
0c
0d
1e
0f
0g
0h
0i
0j
0k
0l
0m
1n
0o
0p
0q
0r
0s
0t
0u
0v
0w
0x
0y
0z
0{
0|
0}
0~
0!!
0"!
0#!
0$!
0%!
0&!
0'!
0(!
0)!
0*!
0+!
0,!
0-!
0.!
0/!
03!
02!
01!
00!
05!
04!
$end
#5000
1!
1P
1Q
09
14!
1@
18
#10000
0!
0P
0Q
19
#15000
1!
1P
1Q
09
#20000
0!
0P
0Q
19
#25000
1!
1P
1Q
09
#30000
0!
0P
0Q
19
#35000
1!
1P
1Q
09
#40000
0!
0P
0Q
19
#45000
1!
1P
1Q
09
#50000
0!
0P
0Q
19
#55000
1!
1P
1Q
09
#60000
0!
0P
0Q
19
#65000
1!
1P
1Q
09
#70000
0!
0P
0Q
19
#75000
1!
1P
1Q
09
#80000
0!
0P
0Q
19
#85000
1!
1P
1Q
09
#90000
0!
0P
0Q
19
#95000
1!
1P
1Q
09
#100000
0!
0P
0Q
19
#105000
1!
1P
1Q
09
#110000
0!
0P
0Q
19
#115000
1!
1P
1Q
09
#120000
0!
0P
0Q
19
#125000
1!
1P
1Q
09
#130000
0!
0P
0Q
19
#135000
1!
1P
1Q
09
#140000
0!
0P
0Q
19
#145000
1!
1P
1Q
09
#150000
0!
0P
0Q
19
#155000
1!
1P
1Q
09
#160000
0!
0P
0Q
19
#165000
1!
1P
1Q
09
#170000
0!
0P
0Q
19
#175000
1!
1P
1Q
09
#180000
0!
0P
0Q
19
#185000
1!
1P
1Q
09
#190000
0!
0P
0Q
19
#195000
1!
1P
1Q
09
#200000
b11 $
b10 $
0!
0[
1Y
0P
0Q
19
0\
1Z
#205000
1!
1P
1Q
09
#210000
0!
0P
0Q
19
#215000
1!
1P
1Q
09
#220000
0!
0P
0Q
19
#225000
1!
1P
1Q
09
#230000
0!
0P
0Q
19
#235000
1!
1P
1Q
09
#240000
0!
0P
0Q
19
#245000
1!
1P
1Q
09
#250000
0!
0P
0Q
19
#255000
1!
1P
1Q
09
#260000
0!
0P
0Q
19
#265000
1!
1P
1Q
09
#270000
0!
0P
0Q
19
#275000
1!
1P
1Q
09
#280000
0!
0P
0Q
19
#285000
1!
1P
1Q
09
#290000
0!
0P
0Q
19
#295000
1!
1P
1Q
09
#300000
0!
0P
0Q
19
#305000
1!
1P
1Q
09
#310000
0!
0P
0Q
19
#315000
1!
1P
1Q
09
#320000
0!
0P
0Q
19
#325000
1!
1P
1Q
09
#330000
0!
0P
0Q
19
#335000
1!
1P
1Q
09
#340000
0!
0P
0Q
19
#345000
1!
1P
1Q
09
#350000
0!
0P
0Q
19
#355000
1!
1P
1Q
09
#360000
0!
0P
0Q
19
#365000
1!
1P
1Q
09
#370000
0!
0P
0Q
19
#375000
1!
1P
1Q
09
#380000
0!
0P
0Q
19
#385000
1!
1P
1Q
09
#390000
0!
0P
0Q
19
#395000
1!
1P
1Q
09
#400000
b11 $
0!
1[
0P
0Q
19
0^
1_
0n
1v
1k
1B
16
1+!
1z
1{
#405000
1!
1P
1Q
09
1m
1,!
1'!
1|
04!
0v
1a
1M
1J
1E
0@
10
13
1+
08
0+!
0z
0{
#410000
0!
0P
0Q
19
#415000
1!
1P
1Q
09
1d
0,!
0'!
0|
0M
0J
0E
00
03
0+
#420000
0!
0P
0Q
19
#425000
1!
1P
1Q
09
13!
1f
0e
#430000
0!
0P
0Q
19
#435000
1!
1P
1Q
09
12!
03!
1e
#440000
0!
0P
0Q
19
#445000
1!
1P
1Q
09
13!
1h
0f
0e
#450000
0!
0P
0Q
19
#455000
1!
1P
1Q
09
11!
02!
03!
1e
#460000
0!
0P
0Q
19
#465000
1!
1P
1Q
09
13!
1f
0e
#470000
0!
0P
0Q
19
#475000
1!
1P
1Q
09
12!
03!
1e
#480000
0!
0P
0Q
19
#485000
1!
1P
1Q
09
13!
0h
1g
0f
0e
#490000
0!
0P
0Q
19
#495000
1!
1P
1Q
09
01!
10!
02!
03!
1e
#500000
0!
0P
0Q
19
#505000
1!
1P
1Q
09
13!
1f
0e
#510000
0!
0P
0Q
19
#515000
1!
1P
1Q
09
12!
03!
1i
1e
0a
#520000
0!
0P
0Q
19
#525000
1!
1P
1Q
09
1j
13!
0d
0k
0i
0g
0e
1a
#530000
0!
0P
0Q
19
#535000
1!
1P
1Q
09
0m
1d
1v
1c
0f
1+!
1z
1{
0d
03!
02!
00!
0j
0a
1e
1k
0c
#540000
0!
0P
0Q
19
#545000
1!
1P
1Q
09
1m
1,!
1'!
1|
0v
1a
1M
1J
1E
10
13
1+
0+!
0z
0{
#550000
0!
0P
0Q
19
#555000
1!
1P
1Q
09
1d
0,!
0'!
0|
0M
0J
0E
00
03
0+
#560000
0!
0P
0Q
19
#565000
1!
1P
1Q
09
13!
1f
0e
#570000
0!
0P
0Q
19
#575000
1!
1P
1Q
09
12!
03!
1e
#580000
0!
0P
0Q
19
#585000
1!
1P
1Q
09
13!
1h
0f
0e
#590000
1&
0!
1`
0P
0Q
19
#595000
1!
1P
1Q
09
11!
02!
03!
1e
#600000
b111 $
b10 %
b101 $
b100 $
0!
0]
0[
0Y
1W
0P
0Q
19
0Z
1p
0_
0B
06
#605000
1!
1P
1Q
09
13!
1f
0e
#610000
0!
0P
0Q
19
#615000
1!
1P
1Q
09
12!
03!
1e
#620000
0!
0P
0Q
19
#625000
1!
1P
1Q
09
13!
0h
1g
0f
0e
#630000
0!
0P
0Q
19
#635000
1!
1P
1Q
09
01!
10!
02!
03!
1e
#640000
0!
0P
0Q
19
#645000
1!
1P
1Q
09
13!
1f
0e
#650000
0&
0!
0`
0P
0Q
19
#655000
1!
1P
1Q
09
12!
03!
1i
1e
0a
#660000
0!
0P
0Q
19
#665000
1!
1P
1Q
09
1j
13!
0d
0k
0i
0g
0e
1a
#670000
0!
0P
0Q
19
#675000
1!
1P
1Q
09
0m
1d
1q
1c
0f
0d
03!
02!
00!
0j
0a
1e
0c
#680000
0!
0P
0Q
19
#685000
1!
1P
1Q
09
15!
1A
17
#690000
0!
0P
0Q
19
#695000
1!
1P
1Q
09
#700000
0!
0P
0Q
19
#705000
1!
1P
1Q
09
#710000
0!
0P
0Q
19
#715000
1!
1P
1Q
09
#720000
0!
0P
0Q
19
#725000
1!
1P
1Q
09
#730000
0!
0P
0Q
19
#735000
1!
1P
1Q
09
#740000
0!
0P
0Q
19
#745000
1!
1P
1Q
09
#750000
0!
0P
0Q
19
#755000
1!
1P
1Q
09
#760000
0!
0P
0Q
19
#765000
1!
1P
1Q
09
#770000
0!
0P
0Q
19
#775000
1!
1P
1Q
09
#780000
0!
0P
0Q
19
#785000
1!
1P
1Q
09
#790000
0!
0P
0Q
19
#795000
1!
1P
1Q
09
#800000
b101 $
0!
1[
0P
0Q
19
#805000
1!
1P
1Q
09
#810000
0!
0P
0Q
19
#815000
1!
1P
1Q
09
#820000
0!
0P
0Q
19
#825000
1!
1P
1Q
09
#830000
0!
0P
0Q
19
#835000
1!
1P
1Q
09
#840000
0!
0P
0Q
19
#845000
1!
1P
1Q
09
#850000
0!
0P
0Q
19
#855000
1!
1P
1Q
09
#860000
0!
0P
0Q
19
#865000
1!
1P
1Q
09
#870000
0!
0P
0Q
19
#875000
1!
1P
1Q
09
#880000
0!
0P
0Q
19
#885000
1!
1P
1Q
09
#890000
0!
0P
0Q
19
#895000
1!
1P
1Q
09
#900000
0!
0P
0Q
19
#905000
1!
1P
1Q
09
#910000
0!
0P
0Q
19
#915000
1!
1P
1Q
09
#920000
0!
0P
0Q
19
#925000
1!
1P
1Q
09
#930000
0!
0P
0Q
19
#935000
1!
1P
1Q
09
#940000
0!
0P
0Q
19
#945000
1!
1P
1Q
09
#950000
0!
0P
0Q
19
#955000
1!
1P
1Q
09
#960000
0!
0P
0Q
19
#965000
1!
1P
1Q
09
#970000
0!
0P
0Q
19
#975000
1!
1P
1Q
09
#980000
0!
0P
0Q
19
#985000
1!
1P
1Q
09
#990000
0!
0P
0Q
19
#995000
1!
1P
1Q
09
