ControladorPuertas/simulation/qsim/ControladorPuertas.msim.vcd
$comment
	File created using the following command:
		vcd file ControladorPuertas.msim.vcd -direction
$end
$date
	Sat Mar 22 12:01:00 2025
$end
$version
	ModelSim Version 10.1d
$end
$timescale
	1ps
$end
$scope module ControladorPuertas_vlg_vec_tst $end
$var reg 1 ! abrir_manual $end
$var reg 1 " cerrar_manual $end
$var reg 1 # clk $end
$var reg 1 $ fallo_energia $end
$var reg 1 % llegada_piso $end
$var reg 1 & notificacion $end
$var reg 1 ' reset $end
$var wire 1 ( puerta $end
$var wire 1 ) sampler $end
$scope module i1 $end
$var wire 1 * gnd $end
$var wire 1 + vcc $end
$var wire 1 , unknown $end
$var tri1 1 - devclrn $end
$var tri1 1 . devpor $end
$var tri1 1 / devoe $end
$var wire 1 0 puerta~output_o $end
$var wire 1 1 clk~input_o $end
$var wire 1 2 clk~inputclkctrl_outclk $end
$var wire 1 3 fallo_energia~input_o $end
$var wire 1 4 notificacion~input_o $end
$var wire 1 5 iniciar_timer_apertura~0_combout $end
$var wire 1 6 cerrar_manual~input_o $end
$var wire 1 7 abrir_manual~input_o $end
$var wire 1 8 llegada_piso~input_o $end
$var wire 1 9 reset_timer_apertura~0_combout $end
$var wire 1 : llegada_detectada~0_combout $end
$var wire 1 ; reset~input_o $end
$var wire 1 < reset~inputclkctrl_outclk $end
$var wire 1 = llegada_detectada~q $end
$var wire 1 > iniciar_timer_apertura~1_combout $end
$var wire 1 ? iniciar_timer_apertura~q $end
$var wire 1 @ timer_apertura|cnt_enable~0_combout $end
$var wire 1 A reset_timer_apertura~q $end
$var wire 1 B comb~1_combout $end
$var wire 1 C timer_apertura|cnt_enable~q $end
$var wire 1 D timer_apertura|CounterInst|cnt_value~3_combout $end
$var wire 1 E timer_apertura|CounterInst|cnt_value[2]~0_combout $end
$var wire 1 F timer_apertura|CounterInst|cnt_value~2_combout $end
$var wire 1 G timer_apertura|CounterInst|cnt_value~1_combout $end
$var wire 1 H timer_apertura|Equal0~0_combout $end
$var wire 1 I timer_apertura|done~q $end
$var wire 1 J timer_cierre|CounterInst|Add0~0_combout $end
$var wire 1 K reset_timer_cierre~0_combout $end
$var wire 1 L reset_timer_cierre~q $end
$var wire 1 M comb~0_combout $end
$var wire 1 N timer_cierre|cnt_enable~0_combout $end
$var wire 1 O timer_cierre|cnt_enable~q $end
$var wire 1 P timer_cierre|CounterInst|Add0~1 $end
$var wire 1 Q timer_cierre|CounterInst|Add0~2_combout $end
$var wire 1 R timer_cierre|CounterInst|cnt_value~3_combout $end
$var wire 1 S timer_cierre|CounterInst|Add0~3 $end
$var wire 1 T timer_cierre|CounterInst|Add0~4_combout $end
$var wire 1 U timer_cierre|CounterInst|cnt_value~1_combout $end
$var wire 1 V timer_cierre|CounterInst|Add0~5 $end
$var wire 1 W timer_cierre|CounterInst|Add0~6_combout $end
$var wire 1 X timer_cierre|CounterInst|cnt_value~2_combout $end
$var wire 1 Y timer_cierre|CounterInst|Add0~7 $end
$var wire 1 Z timer_cierre|CounterInst|Add0~8_combout $end
$var wire 1 [ timer_cierre|CounterInst|Equal0~0_combout $end
$var wire 1 \ timer_cierre|CounterInst|Add0~9 $end
$var wire 1 ] timer_cierre|CounterInst|Add0~10_combout $end
$var wire 1 ^ timer_cierre|CounterInst|cnt_value~0_combout $end
$var wire 1 _ timer_cierre|Equal0~0_combout $end
$var wire 1 ` timer_cierre|done~feeder_combout $end
$var wire 1 a timer_cierre|done~q $end
$var wire 1 b iniciar_timer_cierre~0_combout $end
$var wire 1 c iniciar_timer_cierre~1_combout $end
$var wire 1 d iniciar_timer_cierre~q $end
$var wire 1 e RegistroPuerta|reg[0]~feeder_combout $end
$var wire 1 f RegistroPuerta|reg [0] $end
$var wire 1 g timer_apertura|CounterInst|cnt_value [3] $end
$var wire 1 h timer_apertura|CounterInst|cnt_value [2] $end
$var wire 1 i timer_apertura|CounterInst|cnt_value [1] $end
$var wire 1 j timer_apertura|CounterInst|cnt_value [0] $end
$var wire 1 k timer_cierre|CounterInst|cnt_value [5] $end
$var wire 1 l timer_cierre|CounterInst|cnt_value [4] $end
$var wire 1 m timer_cierre|CounterInst|cnt_value [3] $end
$var wire 1 n timer_cierre|CounterInst|cnt_value [2] $end
$var wire 1 o timer_cierre|CounterInst|cnt_value [1] $end
$var wire 1 p timer_cierre|CounterInst|cnt_value [0] $end
$upscope $end
$upscope $end
$enddefinitions $end
#0
$dumpvars
0!
0"
0#
0$
1%
0&
0'
0(
x)
0*
1+
x,
1-
1.
1/
00
01
02
03
04
15
06
07
18
09
1:
0;
0<
0=
1>
0?
0@
0A
0B
0C
1D
0E
0F
0G
0H
0I
1J
0K
0L
0M
0N
0O
0P
0Q
0R
1S
0T
0U
0V
0W
0X
1Y
0Z
0[
0\
0]
0^
0_
0`
0a
0b
0c
0d
0e
0f
0j
0i
0h
0g
0p
0o
0n
0m
0l
0k
$end
#5000
1#
11
12
0)
1?
1=
1@
0>
#10000
0%
0#
08
01
02
1)
#15000
1#
11
12
0)
1C
0?
#20000
0#
01
02
1)
#25000
1#
11
12
0)
1j
1G
0D
#30000
0#
01
02
1)
#35000
1#
11
12
0)
1i
0j
1D
#40000
0#
01
02
1)
#45000
1#
11
12
0)
1j
0G
1E
0D
#50000
0#
01
02
1)
#55000
1#
11
12
0)
0i
1h
0j
1D
#60000
0#
01
02
1)
#65000
1#
11
12
0)
1j
1G
0D
#70000
0#
01
02
1)
#75000
1#
11
12
0)
1i
0j
1D
#80000
0#
01
02
1)
#85000
1#
11
12
0)
1j
0G
1F
0E
0D
#90000
0#
01
02
1)
#95000
1#
11
12
0)
0i
1g
0h
0j
1D
#100000
0#
01
02
1)
#105000
1#
11
12
0)
1j
1H
1G
0D
0@
#110000
0#
01
02
1)
#115000
1#
11
12
0)
1I
1i
0j
0C
1b
19
0H
0G
0F
1c
0:
#120000
0#
01
02
1)
#125000
1#
11
12
0)
1d
1A
0=
1e
0c
0b
1N
09
1B
1c
0g
0i
0I
1D
#130000
0#
01
02
1)
#135000
1#
11
12
0)
1O
0A
1f
0B
10
1(
#140000
0#
01
02
1)
#145000
1#
11
12
0)
1p
1P
0J
1Q
1R
#150000
0#
01
02
1)
#155000
1#
11
12
0)
1o
0p
0S
0Q
0P
1J
1T
0R
1S
1Q
1U
0T
1R
0U
#160000
0#
01
02
1)
#165000
1#
11
12
0)
1p
1P
0J
0S
0Q
1T
0R
1U
#170000
0#
01
02
1)
#175000
1#
11
12
0)
1n
0o
0p
1V
0T
1S
1Q
0P
1J
1W
0U
0V
1T
1R
0Q
1X
0W
1U
0R
0X
#180000
0#
01
02
1)
#185000
1#
11
12
0)
1p
1P
0J
1Q
1R
#190000
0#
01
02
1)
#195000
1#
11
12
0)
1o
0p
0S
0Q
0P
1J
1V
0T
0R
1S
1Q
1W
0U
0V
1T
1R
1X
0W
1U
0X
#200000
0#
01
02
1)
#205000
1#
11
12
0)
1p
1P
0J
0S
0Q
1V
0T
0R
1W
0U
1X
#210000
0#
01
02
1)
#215000
1#
11
12
0)
1m
0n
0o
0p
0Y
0W
0V
1T
1S
1Q
0P
1J
1Z
0X
1Y
1W
1U
0T
1R
0Q
0Z
1X
0U
0R
#220000
0#
01
02
1)
#225000
1#
11
12
0)
1p
1P
0J
1Q
1R
#230000
0#
01
02
1)
#235000
1#
11
12
0)
1o
0p
0S
0Q
0P
1J
1T
0R
1S
1Q
1U
0T
1R
0U
#240000
0#
01
02
1)
#245000
1#
11
12
0)
1p
1P
0J
0S
0Q
1T
0R
1U
#250000
0#
01
02
1)
#255000
1#
11
12
0)
1n
0o
0p
1[
1V
0T
1S
1Q
0P
1J
0U
1R
0Y
0W
0V
1T
0Q
1Z
0X
1Y
1W
1U
0R
0Z
1X
#260000
0#
01
02
1)
#265000
1#
11
12
0)
1p
1P
0J
1Q
1R
#270000
0#
01
02
1)
#275000
1#
11
12
0)
1o
0p
0[
0S
0Q
0P
1J
0R
1V
0T
1S
1Q
0Y
0W
0U
0V
1T
1R
1Z
0X
1Y
1W
1U
0Z
1X
#280000
0#
01
02
1)
#285000
1#
11
12
0)
1p
1P
0J
0S
0Q
1V
0T
0R
0Y
0W
0U
1Z
0X
#290000
0#
01
02
1)
#295000
1#
11
12
0)
1l
0m
0n
0o
0p
1\
0Z
1Y
1W
0V
1T
1S
1Q
0P
1J
1]
0\
1Z
1X
0W
1U
0T
1R
0Q
1^
0]
0X
0U
0R
0^
#300000
0#
01
02
1)
#305000
1#
11
12
0)
1p
1P
0J
1Q
1R
#310000
1$
0#
13
01
02
1)
05
0c
1K
19
#315000
1#
11
12
0)
0d
1o
0p
1L
1A
0e
0S
0Q
0P
1J
1M
1B
1T
0R
1S
1Q
1U
0T
1R
0U
0O
0o
0l
0N
0Q
0Z
0R
#320000
0#
01
02
1)
#325000
1#
11
12
0)
0f
00
0(
#330000
0#
01
02
1)
#335000
1#
11
12
0)
#340000
0#
01
02
1)
#345000
1#
11
12
0)
#350000
1!
0#
17
01
02
1)
1b
#355000
1#
11
12
0)
#360000
0!
0#
07
01
02
1)
0b
#365000
1#
11
12
0)
#370000
0#
01
02
1)
#375000
1#
11
12
0)
#380000
0#
01
02
1)
#385000
1#
11
12
0)
#390000
0#
01
02
1)
#395000
1#
11
12
0)
#400000
0$
0#
03
01
02
1)
15
0K
09
#405000
1#
11
12
0)
0L
0A
0M
0B
#410000
0#
01
02
1)
#415000
1#
11
12
0)
#420000
0#
01
02
1)
#425000
1#
11
12
0)
#430000
0#
01
02
1)
#435000
1#
11
12
0)
#440000
0#
01
02
1)
#445000
1#
11
12
0)
#450000
1!
0#
17
01
02
1)
1b
19
1c
#455000
1#
11
12
0)
1d
1A
1e
0c
0b
1N
09
1B
1c
#460000
0!
0#
07
01
02
1)
#465000
1#
11
12
0)
1O
0A
1f
0B
10
1(
#470000
0#
01
02
1)
#475000
1#
11
12
0)
1p
1P
0J
1Q
1R
#480000
0#
01
02
1)
#485000
1#
11
12
0)
1o
0p
0S
0Q
0P
1J
1T
0R
1S
1Q
1U
0T
1R
0U
#490000
0#
01
02
1)
#495000
1#
11
12
0)
1p
1P
0J
0S
0Q
1T
0R
1U
#500000
0#
01
02
1)
#505000
1#
11
12
0)
1n
0o
0p
1V
0T
1S
1Q
0P
1J
1W
0U
0V
1T
1R
0Q
1X
0W
1U
0R
0X
#510000
0#
01
02
1)
#515000
1#
11
12
0)
1p
1P
0J
1Q
1R
#520000
0#
01
02
1)
#525000
1#
11
12
0)
1o
0p
0S
0Q
0P
1J
1V
0T
0R
1S
1Q
1W
0U
0V
1T
1R
1X
0W
1U
0X
#530000
0#
01
02
1)
#535000
1#
11
12
0)
1p
1P
0J
0S
0Q
1V
0T
0R
1W
0U
1X
#540000
0#
01
02
1)
#545000
1#
11
12
0)
1m
0n
0o
0p
0Y
0W
0V
1T
1S
1Q
0P
1J
1Z
0X
1Y
1W
1U
0T
1R
0Q
0Z
1X
0U
0R
#550000
0#
01
02
1)
#555000
1#
11
12
0)
1p
1P
0J
1Q
1R
#560000
0#
01
02
1)
#565000
1#
11
12
0)
1o
0p
0S
0Q
0P
1J
1T
0R
1S
1Q
1U
0T
1R
0U
#570000
0#
01
02
1)
#575000
1#
11
12
0)
1p
1P
0J
0S
0Q
1T
0R
1U
#580000
0#
01
02
1)
#585000
1#
11
12
0)
1n
0o
0p
1[
1V
0T
1S
1Q
0P
1J
0U
1R
0Y
0W
0V
1T
0Q
1Z
0X
1Y
1W
1U
0R
0Z
1X
#590000
0#
01
02
1)
#595000
1#
11
12
0)
1p
1P
0J
1Q
1R
#600000
0#
01
02
1)
#605000
1#
11
12
0)
1o
0p
0[
0S
0Q
0P
1J
0R
1V
0T
1S
1Q
0Y
0W
0U
0V
1T
1R
1Z
0X
1Y
1W
1U
0Z
1X
#610000
0#
01
02
1)
#615000
1#
11
12
0)
1p
1P
0J
0S
0Q
1V
0T
0R
0Y
0W
0U
1Z
0X
#620000
0#
01
02
1)
#625000
1#
11
12
0)
1l
0m
0n
0o
0p
1\
0Z
1Y
1W
0V
1T
1S
1Q
0P
1J
1]
0\
1Z
1X
0W
1U
0T
1R
0Q
1^
0]
0X
0U
0R
0^
#630000
0#
01
02
1)
#635000
1#
11
12
0)
1p
1P
0J
1Q
1R
#640000
0#
01
02
1)
#645000
1#
11
12
0)
1o
0p
0S
0Q
0P
1J
1T
0R
1S
1Q
1U
0T
1R
0U
#650000
0#
01
02
1)
#655000
1#
11
12
0)
1p
1P
0J
0S
0Q
1T
0R
1U
#660000
0#
01
02
1)
#665000
1#
11
12
0)
1n
0o
0p
1V
0T
1S
1Q
0P
1J
1W
0U
0V
1T
1R
0Q
1X
0W
1U
0R
0X
#670000
0#
01
02
1)
#675000
1#
11
12
0)
1p
1P
0J
1Q
1R
#680000
0#
01
02
1)
#685000
1#
11
12
0)
1o
0p
0S
0Q
0P
1J
1V
0T
0R
1S
1Q
1W
0U
0V
1T
1R
1X
0W
1U
0X
#690000
0#
01
02
1)
#695000
1#
11
12
0)
1p
1P
0J
0S
0Q
1V
0T
0R
1W
0U
1X
#700000
0#
01
02
1)
#705000
1#
11
12
0)
1m
0n
0o
0p
0Y
0W
0V
1T
1S
1Q
0P
1J
1\
0Z
0X
1Y
1W
1U
0T
1R
0Q
1]
0\
1Z
1X
0U
0R
1^
0]
0^
#710000
0#
01
02
1)
#715000
1#
11
12
0)
1p
1P
0J
1Q
1R
#720000
0#
01
02
1)
#725000
1#
11
12
0)
1o
0p
0S
0Q
0P
1J
1T
0R
1S
1Q
1U
0T
1R
0U
#730000
0#
01
02
1)
#735000
1#
11
12
0)
1p
1P
0J
0S
0Q
1T
0R
1U
#740000
0#
01
02
1)
#745000
1#
11
12
0)
1n
0o
0p
1V
0T
1S
1Q
0P
1J
0Y
0W
0U
0V
1T
1R
0Q
1\
0Z
0X
1Y
1W
1U
0R
1]
0\
1Z
1X
1^
0]
0^
#750000
0#
01
02
1)
#755000
1#
11
12
0)
1p
1P
0J
1Q
1R
#760000
0#
01
02
1)
#765000
1#
11
12
0)
1o
0p
0S
0Q
0P
1J
1V
0T
0R
1S
1Q
0Y
0W
0U
0V
1T
1R
1\
0Z
0X
1Y
1W
1U
1]
0\
1Z
1X
1^
0]
0^
#770000
0#
01
02
1)
#775000
1#
11
12
0)
1p
1P
0J
0S
0Q
1V
0T
0R
0Y
0W
0U
1\
0Z
0X
1]
1^
#780000
0#
01
02
1)
#785000
1#
11
12
0)
1k
0l
0m
0n
0o
0p
0]
0\
1Z
1Y
1W
0V
1T
1S
1Q
0P
1J
0^
1]
0Z
1X
0W
1U
0T
1R
0Q
1^
0X
0U
0R
#790000
0#
01
02
1)
#795000
1#
11
12
0)
1p
1P
0J
1Q
1R
#800000
0#
01
02
1)
#805000
1#
11
12
0)
1o
0p
0S
0Q
0P
1J
1T
0R
1S
1Q
1U
0T
1R
0U
#810000
0#
01
02
1)
#815000
1#
11
12
0)
1p
1P
0J
0S
0Q
1T
0R
1U
#820000
0#
01
02
1)
#825000
1#
11
12
0)
1n
0o
0p
1V
0T
1S
1Q
0P
1J
1W
0U
0V
1T
1R
0Q
1X
0W
1U
0R
0X
#830000
0#
01
02
1)
#835000
1#
11
12
0)
1p
1P
0J
1Q
1R
#840000
0#
01
02
1)
#845000
1#
11
12
0)
1o
0p
0S
0Q
0P
1J
1V
0T
0R
1S
1Q
1W
0U
0V
1T
1R
1X
0W
1U
0X
#850000
0#
01
02
1)
#855000
1#
11
12
0)
1p
1P
0J
0S
0Q
1V
0T
0R
1W
0U
1X
#860000
0#
01
02
1)
#865000
1#
11
12
0)
1m
0n
0o
0p
0Y
0W
0V
1T
1S
1Q
0P
1J
1Z
0X
1Y
1W
1U
0T
1R
0Q
0Z
1X
0U
0R
#870000
0#
01
02
1)
#875000
1#
11
12
0)
1p
1P
0J
1Q
1R
#880000
0#
01
02
1)
#885000
1#
11
12
0)
1o
0p
0S
0Q
0P
1J
1T
0R
1S
1Q
1U
0T
1R
0U
#890000
0#
01
02
1)
#895000
1#
11
12
0)
1p
1P
0J
0S
0Q
1T
0R
1U
#900000
0#
01
02
1)
#905000
1#
11
12
0)
1n
0o
0p
1[
1V
0T
1S
1Q
0P
1J
1_
0U
1R
0Y
0W
0V
1T
0Q
1`
0N
1Z
0X
1Y
1W
1U
0R
0Z
1X
#910000
0#
01
02
1)
#915000
1#
11
12
0)
1a
1p
0O
1b
1K
0_
0^
0X
0U
1P
0J
1N
0c
0`
1Q
#920000
0#
01
02
1)
#925000
1#
11
12
0)
0d
1O
1L
0e
1c
0b
0K
1M
0c
0O
0p
0n
0m
0k
0a
0N
1^
1X
1U
1R
0P
1J
0[
0T
0W
0]
0Q
0^
0X
0U
0R
#930000
0#
01
02
1)
#935000
1#
11
12
0)
0L
0f
0M
00
0(
#940000
0#
01
02
1)
#945000
1#
11
12
0)
#950000
0#
01
02
1)
#955000
1#
11
12
0)
#960000
0#
01
02
1)
#965000
1#
11
12
0)
#970000
0#
01
02
1)
#975000
1#
11
12
0)
#980000
0#
01
02
1)
#985000
1#
11
12
0)
#990000
0#
01
02
1)
#995000
1#
11
12
0)
