gestion_cabina/simulation/qsim/gestion_cabina.msim.vcd
$comment
	File created using the following command:
		vcd file gestion_cabina.msim.vcd -direction
$end
$date
	Tue Mar 25 17:14:44 2025
$end
$version
	ModelSim Version 10.1d
$end
$timescale
	1ps
$end
$scope module gestion_cabina_vlg_vec_tst $end
$var reg 5 ! botones_cabina [4:0] $end
$var reg 5 " clear_request [4:0] $end
$var reg 1 # clk $end
$var reg 1 $ reset $end
$var wire 1 % solicitudes_internas [4] $end
$var wire 1 & solicitudes_internas [3] $end
$var wire 1 ' solicitudes_internas [2] $end
$var wire 1 ( solicitudes_internas [1] $end
$var wire 1 ) solicitudes_internas [0] $end
$var wire 1 * sampler $end
$scope module i1 $end
$var wire 1 + gnd $end
$var wire 1 , vcc $end
$var wire 1 - unknown $end
$var tri1 1 . devclrn $end
$var tri1 1 / devpor $end
$var tri1 1 0 devoe $end
$var wire 1 1 solicitudes_internas[0]~output_o $end
$var wire 1 2 solicitudes_internas[1]~output_o $end
$var wire 1 3 solicitudes_internas[2]~output_o $end
$var wire 1 4 solicitudes_internas[3]~output_o $end
$var wire 1 5 solicitudes_internas[4]~output_o $end
$var wire 1 6 clk~input_o $end
$var wire 1 7 clk~inputclkctrl_outclk $end
$var wire 1 8 botones_cabina[0]~input_o $end
$var wire 1 9 clear_request[0]~input_o $end
$var wire 1 : reset~input_o $end
$var wire 1 ; reset~inputclkctrl_outclk $end
$var wire 1 < clear_request[1]~input_o $end
$var wire 1 = botones_cabina[1]~input_o $end
$var wire 1 > botones_cabina[2]~input_o $end
$var wire 1 ? clear_request[2]~input_o $end
$var wire 1 @ botones_cabina[3]~input_o $end
$var wire 1 A clear_request[3]~input_o $end
$var wire 1 B botones_cabina[4]~input_o $end
$var wire 1 C clear_request[4]~input_o $end
$var wire 1 D reg_solicitudes_proc|reg [4] $end
$var wire 1 E reg_solicitudes_proc|reg [3] $end
$var wire 1 F reg_solicitudes_proc|reg [2] $end
$var wire 1 G reg_solicitudes_proc|reg [1] $end
$var wire 1 H reg_solicitudes_proc|reg [0] $end
$var wire 1 I solicitudes_limpias [4] $end
$var wire 1 J solicitudes_limpias [3] $end
$var wire 1 K solicitudes_limpias [2] $end
$var wire 1 L solicitudes_limpias [1] $end
$var wire 1 M solicitudes_limpias [0] $end
$upscope $end
$upscope $end
$enddefinitions $end
#0
$dumpvars
b100 !
b0 "
0#
0$
0)
0(
0'
0&
0%
x*
0+
1,
x-
1.
1/
10
01
02
03
04
05
06
07
08
09
0:
0;
0<
0=
1>
0?
0@
0A
0B
0C
0H
0G
0F
0E
0D
0M
0L
1K
0J
0I
$end
#5000
1#
16
17
0*
1F
13
1'
#10000
0#
06
07
1*
#15000
1#
16
17
0*
#20000
b0 !
0#
0>
06
07
1*
#25000
1#
16
17
0*
#30000
0#
06
07
1*
#35000
1#
16
17
0*
#40000
0#
06
07
1*
#45000
1#
16
17
0*
#50000
0#
06
07
1*
#55000
1#
16
17
0*
#60000
0#
06
07
1*
#65000
1#
16
17
0*
#70000
0#
06
07
1*
#75000
1#
16
17
0*
#80000
0#
06
07
1*
#85000
1#
16
17
0*
#90000
b1000 !
0#
1@
06
07
1*
1J
#95000
1#
16
17
0*
1E
14
1&
#100000
0#
06
07
1*
#105000
1#
16
17
0*
#110000
b0 !
0#
0@
06
07
1*
#115000
1#
16
17
0*
#120000
0#
06
07
1*
#125000
1#
16
17
0*
#130000
0#
06
07
1*
#135000
1#
16
17
0*
#140000
0#
06
07
1*
#145000
1#
16
17
0*
#150000
0#
06
07
1*
#155000
1#
16
17
0*
#160000
0#
06
07
1*
#165000
1#
16
17
0*
#170000
0#
06
07
1*
#175000
1#
16
17
0*
#180000
0#
06
07
1*
#185000
1#
16
17
0*
#190000
0#
06
07
1*
#195000
1#
16
17
0*
#200000
0#
06
07
1*
#205000
1#
16
17
0*
#210000
b100 "
0#
1?
06
07
1*
0K
#215000
1#
16
17
0*
0F
03
0'
#220000
b110 "
b10 "
0#
1<
0?
06
07
1*
#225000
1#
16
17
0*
#230000
b0 "
0#
0<
06
07
1*
#235000
1#
16
17
0*
#240000
0#
06
07
1*
#245000
1#
16
17
0*
#250000
b100 !
0#
1>
06
07
1*
1K
#255000
1#
16
17
0*
1F
13
1'
#260000
0#
06
07
1*
#265000
1#
16
17
0*
#270000
b0 !
0#
0>
06
07
1*
#275000
1#
16
17
0*
#280000
0#
06
07
1*
#285000
1#
16
17
0*
#290000
0#
06
07
1*
#295000
1#
16
17
0*
#300000
0#
06
07
1*
#305000
1#
16
17
0*
#310000
0#
06
07
1*
#315000
1#
16
17
0*
#320000
0#
06
07
1*
#325000
1#
16
17
0*
#330000
0#
06
07
1*
#335000
1#
16
17
0*
#340000
0#
06
07
1*
#345000
1#
16
17
0*
#350000
0#
06
07
1*
#355000
1#
16
17
0*
#360000
0#
06
07
1*
#365000
1#
16
17
0*
#370000
0#
06
07
1*
#375000
1#
16
17
0*
#380000
0#
06
07
1*
#385000
1#
16
17
0*
#390000
0#
06
07
1*
#395000
1#
16
17
0*
#400000
0#
06
07
1*
#405000
1#
16
17
0*
#410000
0#
06
07
1*
#415000
1#
16
17
0*
#420000
0#
06
07
1*
#425000
1#
16
17
0*
#430000
0#
06
07
1*
#435000
1#
16
17
0*
#440000
0#
06
07
1*
#445000
1#
16
17
0*
#450000
0#
06
07
1*
#455000
1#
16
17
0*
#460000
0#
06
07
1*
#465000
1#
16
17
0*
#470000
0#
06
07
1*
#475000
1#
16
17
0*
#480000
0#
06
07
1*
#485000
1#
16
17
0*
#490000
0#
06
07
1*
#495000
1#
16
17
0*
#500000
0#
06
07
1*
#505000
1#
16
17
0*
#510000
0#
06
07
1*
#515000
1#
16
17
0*
#520000
0#
06
07
1*
#525000
1#
16
17
0*
#530000
0#
06
07
1*
#535000
1#
16
17
0*
#540000
0#
06
07
1*
#545000
1#
16
17
0*
#550000
0#
06
07
1*
#555000
1#
16
17
0*
#560000
0#
06
07
1*
#565000
1#
16
17
0*
#570000
0#
06
07
1*
#575000
1#
16
17
0*
#580000
0#
06
07
1*
#585000
1#
16
17
0*
#590000
0#
06
07
1*
#595000
1#
16
17
0*
#600000
0#
06
07
1*
#605000
1#
16
17
0*
#610000
0#
06
07
1*
#615000
1#
16
17
0*
#620000
0#
06
07
1*
#625000
1#
16
17
0*
#630000
0#
06
07
1*
#635000
1#
16
17
0*
#640000
0#
06
07
1*
#645000
1#
16
17
0*
#650000
0#
06
07
1*
#655000
1#
16
17
0*
#660000
0#
06
07
1*
#665000
1#
16
17
0*
#670000
0#
06
07
1*
#675000
1#
16
17
0*
#680000
0#
06
07
1*
#685000
1#
16
17
0*
#690000
0#
06
07
1*
#695000
1#
16
17
0*
#700000
0#
06
07
1*
#705000
1#
16
17
0*
#710000
0#
06
07
1*
#715000
1#
16
17
0*
#720000
0#
06
07
1*
#725000
1#
16
17
0*
#730000
0#
06
07
1*
#735000
1#
16
17
0*
#740000
0#
06
07
1*
#745000
1#
16
17
0*
#750000
0#
06
07
1*
#755000
1#
16
17
0*
#760000
0#
06
07
1*
#765000
1#
16
17
0*
#770000
0#
06
07
1*
#775000
1#
16
17
0*
#780000
0#
06
07
1*
#785000
1#
16
17
0*
#790000
0#
06
07
1*
#795000
1#
16
17
0*
#800000
0#
06
07
1*
#805000
1#
16
17
0*
#810000
0#
06
07
1*
#815000
1#
16
17
0*
#820000
0#
06
07
1*
#825000
1#
16
17
0*
#830000
0#
06
07
1*
#835000
1#
16
17
0*
#840000
0#
06
07
1*
#845000
1#
16
17
0*
#850000
0#
06
07
1*
#855000
1#
16
17
0*
#860000
0#
06
07
1*
#865000
1#
16
17
0*
#870000
0#
06
07
1*
#875000
1#
16
17
0*
#880000
0#
06
07
1*
#885000
1#
16
17
0*
#890000
0#
06
07
1*
#895000
1#
16
17
0*
#900000
0#
06
07
1*
#905000
1#
16
17
0*
#910000
0#
06
07
1*
#915000
1#
16
17
0*
#920000
0#
06
07
1*
#925000
1#
16
17
0*
#930000
0#
06
07
1*
#935000
1#
16
17
0*
#940000
0#
06
07
1*
#945000
1#
16
17
0*
#950000
0#
06
07
1*
#955000
1#
16
17
0*
#960000
0#
06
07
1*
#965000
1#
16
17
0*
#970000
0#
06
07
1*
#975000
1#
16
17
0*
#980000
0#
06
07
1*
#985000
1#
16
17
0*
#990000
0#
06
07
1*
#995000
1#
16
17
0*
