ContadorPersonas/simulation/qsim/ContadorPersonas.msim.vcd
$comment
	File created using the following command:
		vcd file ContadorPersonas.msim.vcd -direction
$end
$date
	Tue Mar 25 15:45:17 2025
$end
$version
	ModelSim Version 10.1d
$end
$timescale
	1ps
$end
$scope module ContadorPersonas_vlg_vec_tst $end
$var reg 1 ! clk $end
$var reg 1 " entrar_persona $end
$var reg 1 # reset $end
$var reg 1 $ salir_persona $end
$var wire 1 % luces $end
$var wire 1 & num_personas [3] $end
$var wire 1 ' num_personas [2] $end
$var wire 1 ( num_personas [1] $end
$var wire 1 ) num_personas [0] $end
$var wire 1 * sobrecarga $end
$var wire 1 + sampler $end
$scope module i1 $end
$var wire 1 , gnd $end
$var wire 1 - vcc $end
$var wire 1 . unknown $end
$var tri1 1 / devclrn $end
$var tri1 1 0 devpor $end
$var tri1 1 1 devoe $end
$var wire 1 2 num_personas[0]~output_o $end
$var wire 1 3 num_personas[1]~output_o $end
$var wire 1 4 num_personas[2]~output_o $end
$var wire 1 5 num_personas[3]~output_o $end
$var wire 1 6 luces~output_o $end
$var wire 1 7 sobrecarga~output_o $end
$var wire 1 8 clk~input_o $end
$var wire 1 9 clk~inputclkctrl_outclk $end
$var wire 1 : CONTADOR_GENERICO|cnt_value[0]~5_combout $end
$var wire 1 ; reset~input_o $end
$var wire 1 < reset~inputclkctrl_outclk $end
$var wire 1 = entrar_persona~input_o $end
$var wire 1 > salir_persona~input_o $end
$var wire 1 ? CONTADOR_GENERICO|cnt_value~4_combout $end
$var wire 1 @ CONTADOR_GENERICO|cnt_value[2]~2_combout $end
$var wire 1 A CONTADOR_GENERICO|cnt_value[2]~3_combout $end
$var wire 1 B CONTADOR_GENERICO|cnt_value[3]~0_combout $end
$var wire 1 C CONTADOR_GENERICO|cnt_value[3]~1_combout $end
$var wire 1 D LessThan2~0_combout $end
$var wire 1 E REG_PERSONAS|reg[1]~feeder_combout $end
$var wire 1 F REG_PERSONAS|reg[2]~feeder_combout $end
$var wire 1 G REG_PERSONAS|reg[3]~feeder_combout $end
$var wire 1 H contador_stop~0_combout $end
$var wire 1 I contador_stop~1_combout $end
$var wire 1 J REG_PERSONAS|reg[0]~feeder_combout $end
$var wire 1 K LessThan1~0_combout $end
$var wire 1 L REG_LUCES|reg [0] $end
$var wire 1 M CONTADOR_GENERICO|cnt_value [3] $end
$var wire 1 N CONTADOR_GENERICO|cnt_value [2] $end
$var wire 1 O CONTADOR_GENERICO|cnt_value [1] $end
$var wire 1 P CONTADOR_GENERICO|cnt_value [0] $end
$var wire 1 Q REG_PERSONAS|reg [3] $end
$var wire 1 R REG_PERSONAS|reg [2] $end
$var wire 1 S REG_PERSONAS|reg [1] $end
$var wire 1 T REG_PERSONAS|reg [0] $end
$upscope $end
$upscope $end
$enddefinitions $end
#0
$dumpvars
0!
0"
0#
1$
0%
0)
0(
0'
0&
0*
x+
0,
1-
x.
1/
10
11
02
03
04
05
06
07
08
09
1:
0;
0<
0=
1>
1?
1@
0A
0B
0C
0D
0E
0F
0G
0H
1I
0J
0K
0L
0P
0O
0N
0M
0T
0S
0R
0Q
$end
#5000
1!
18
19
0+
#10000
1"
0!
1=
08
09
1+
1B
0@
0?
#15000
1!
18
19
0+
#20000
0!
08
09
1+
#25000
1!
18
19
0+
#30000
0!
08
09
1+
#35000
1!
18
19
0+
#40000
0!
08
09
1+
#45000
1!
18
19
0+
#50000
0"
0!
0=
08
09
1+
0B
1@
1?
#55000
1!
18
19
0+
#60000
0!
08
09
1+
#65000
1!
18
19
0+
#70000
0!
08
09
1+
#75000
1!
18
19
0+
#80000
0!
08
09
1+
#85000
1!
18
19
0+
#90000
0!
08
09
1+
#95000
1!
18
19
0+
#100000
0!
08
09
1+
#105000
1!
18
19
0+
#110000
0!
08
09
1+
#115000
1!
18
19
0+
#120000
0!
08
09
1+
#125000
1!
18
19
0+
#130000
0!
08
09
1+
#135000
1!
18
19
0+
#140000
0!
08
09
1+
#145000
1!
18
19
0+
#150000
0!
08
09
1+
#155000
1!
18
19
0+
#160000
0!
08
09
1+
#165000
1!
18
19
0+
#170000
0!
08
09
1+
#175000
1!
18
19
0+
#180000
0!
08
09
1+
#185000
1!
18
19
0+
#190000
0!
08
09
1+
#195000
1!
18
19
0+
#200000
0!
08
09
1+
#205000
1!
18
19
0+
#210000
0!
08
09
1+
#215000
1!
18
19
0+
#220000
0!
08
09
1+
#225000
1!
18
19
0+
#230000
0!
08
09
1+
#235000
1!
18
19
0+
#240000
0!
08
09
1+
#245000
1!
18
19
0+
#250000
0!
08
09
1+
#255000
1!
18
19
0+
#260000
0!
08
09
1+
#265000
1!
18
19
0+
#270000
0!
08
09
1+
#275000
1!
18
19
0+
#280000
0!
08
09
1+
#285000
1!
18
19
0+
#290000
0!
08
09
1+
#295000
1!
18
19
0+
#300000
0!
08
09
1+
#305000
1!
18
19
0+
#310000
0!
08
09
1+
#315000
1!
18
19
0+
#320000
0!
08
09
1+
#325000
1!
18
19
0+
#330000
0!
08
09
1+
#335000
1!
18
19
0+
#340000
0!
08
09
1+
#345000
1!
18
19
0+
#350000
0!
08
09
1+
#355000
1!
18
19
0+
#360000
0!
08
09
1+
#365000
1!
18
19
0+
#370000
0!
08
09
1+
#375000
1!
18
19
0+
#380000
0!
08
09
1+
#385000
1!
18
19
0+
#390000
0!
08
09
1+
#395000
1!
18
19
0+
#400000
0!
08
09
1+
#405000
1!
18
19
0+
#410000
0!
08
09
1+
#415000
1!
18
19
0+
#420000
0!
08
09
1+
#425000
1!
18
19
0+
#430000
0!
08
09
1+
#435000
1!
18
19
0+
#440000
0!
08
09
1+
#445000
1!
18
19
0+
#450000
0!
08
09
1+
#455000
1!
18
19
0+
#460000
0!
08
09
1+
#465000
1!
18
19
0+
#470000
0!
08
09
1+
#475000
1!
18
19
0+
#480000
0!
08
09
1+
#485000
1!
18
19
0+
#490000
0!
08
09
1+
#495000
1!
18
19
0+
#500000
0!
08
09
1+
#505000
1!
18
19
0+
#510000
0!
08
09
1+
#515000
1!
18
19
0+
#520000
0!
08
09
1+
#525000
1!
18
19
0+
#530000
0!
08
09
1+
#535000
1!
18
19
0+
#540000
0!
08
09
1+
#545000
1!
18
19
0+
#550000
0!
08
09
1+
#555000
1!
18
19
0+
#560000
0!
08
09
1+
#565000
1!
18
19
0+
#570000
0!
08
09
1+
#575000
1!
18
19
0+
#580000
0!
08
09
1+
#585000
1!
18
19
0+
#590000
0!
08
09
1+
#595000
1!
18
19
0+
#600000
0!
08
09
1+
#605000
1!
18
19
0+
#610000
0!
08
09
1+
#615000
1!
18
19
0+
#620000
0!
08
09
1+
#625000
1!
18
19
0+
#630000
0!
08
09
1+
#635000
1!
18
19
0+
#640000
0!
08
09
1+
#645000
1!
18
19
0+
#650000
0!
08
09
1+
#655000
1!
18
19
0+
#660000
0!
08
09
1+
#665000
1!
18
19
0+
#670000
0!
08
09
1+
#675000
1!
18
19
0+
#680000
0!
08
09
1+
#685000
1!
18
19
0+
#690000
0!
08
09
1+
#695000
1!
18
19
0+
#700000
0!
08
09
1+
#705000
1!
18
19
0+
#710000
0!
08
09
1+
#715000
1!
18
19
0+
#720000
0!
08
09
1+
#725000
1!
18
19
0+
#730000
0!
08
09
1+
#735000
1!
18
19
0+
#740000
0!
08
09
1+
#745000
1!
18
19
0+
#750000
0!
08
09
1+
#755000
1!
18
19
0+
#760000
0!
08
09
1+
#765000
1!
18
19
0+
#770000
0!
08
09
1+
#775000
1!
18
19
0+
#780000
0!
08
09
1+
#785000
1!
18
19
0+
#790000
0!
08
09
1+
#795000
1!
18
19
0+
#800000
0!
08
09
1+
#805000
1!
18
19
0+
#810000
0!
08
09
1+
#815000
1!
18
19
0+
#820000
0!
08
09
1+
#825000
1!
18
19
0+
#830000
0!
08
09
1+
#835000
1!
18
19
0+
#840000
0!
08
09
1+
#845000
1!
18
19
0+
#850000
0!
08
09
1+
#855000
1!
18
19
0+
#860000
0!
08
09
1+
#865000
1!
18
19
0+
#870000
0!
08
09
1+
#875000
1!
18
19
0+
#880000
0!
08
09
1+
#885000
1!
18
19
0+
#890000
0!
08
09
1+
#895000
1!
18
19
0+
#900000
0!
08
09
1+
#905000
1!
18
19
0+
#910000
0!
08
09
1+
#915000
1!
18
19
0+
#920000
0!
08
09
1+
#925000
1!
18
19
0+
#930000
0!
08
09
1+
#935000
1!
18
19
0+
#940000
0!
08
09
1+
#945000
1!
18
19
0+
#950000
0!
08
09
1+
#955000
1!
18
19
0+
#960000
0!
08
09
1+
#965000
1!
18
19
0+
#970000
0!
08
09
1+
#975000
1!
18
19
0+
#980000
0!
08
09
1+
#985000
1!
18
19
0+
#990000
0!
08
09
1+
#995000
1!
18
19
0+
